Method: public void Empty() 
CFG of method: public void Empty() 
Entry: 0
Exit: 1
Basicblocks:
  BasicBlock: 0
  Prevs: 
  Succs: 1
  Statements: 

  BasicBlock: 1
  Prevs: 0
  Succs: 
  Statements: 

------------
