CFG of method: public void testWhile1(int) 
Entry: 0
Exit: 1
Basicblocks:
  BasicBlock: 0
  Prevs: 
  Succs: 2
  Statements: 

  BasicBlock: 1
  Prevs: 2
  Succs: 
  Statements: 

  BasicBlock: 2
  Prevs: 0
  Succs: 1
  Statements: 
  : true

