CFG of method: public void testTry8(int) 
Entry: 0
Exit: 1
Basicblocks:
  BasicBlock: 0
  Prevs: 
  Succs: 2, 3, 4
  Statements: 

  BasicBlock: 1
  Prevs: 5
  Succs: 
  Statements: 

  BasicBlock: 2
  Prevs: 0
  Succs: 5
  Statements: 
  : x=x + 1;


  BasicBlock: 3
  Prevs: 0
  Succs: 5
  Statements: 
  : System.err.println("Error");


  BasicBlock: 4
  Prevs: 0
  Succs: 5
  Statements: 
  : System.err.println("Error");


  BasicBlock: 5
  Prevs: 2, 3, 4
  Succs: 1
  Statements: 
  : x=12;

  : x=x + 2;


