CFG of method: public int testWhileReturn1(int) 
Entry: 0
Exit: 1
Basicblocks:
  BasicBlock: 0
  Prevs: 
  Succs: 2
  Statements: 

  BasicBlock: 1
  Prevs: 4, 5
  Succs: 
  Statements: 

  BasicBlock: 2
  Prevs: 0
  Succs: 3, 5
  Statements: 
  : x < 100

  BasicBlock: 3
  Prevs: 2
  Succs: 4, 5
  Statements: 
  : x++;

  : x > 30

  BasicBlock: 4
  Prevs: 3
  Succs: 1
  Statements: 
  : return x + 10;


  BasicBlock: 5
  Prevs: 2, 3
  Succs: 1
  Statements: 
  : x=x + 20;

  : return x;


