CFG of method: public int testForReturn2(int) 
Entry: 0
Exit: 1
Basicblocks:
  BasicBlock: 0
  Prevs: 
  Succs: 2
  Statements: 

  BasicBlock: 1
  Prevs: 4, 6
  Succs: 
  Statements: 

  BasicBlock: 2
  Prevs: 0
  Succs: 3
  Statements: 
  : int i=1

  BasicBlock: 3
  Prevs: 2
  Succs: 4, 6
  Statements: 
  : i < 10

  BasicBlock: 4
  Prevs: 3
  Succs: 1
  Statements: 
  : return x + 1;


  BasicBlock: 5
  Prevs: 
  Succs: 6
  Statements: 
  : i++

  BasicBlock: 6
  Prevs: 3, 5
  Succs: 1
  Statements: 
  : x=x + 10;

  : return x;


