CFG of method: public void testIf6(int) 
Entry: 0
Exit: 1
Basicblocks:
  BasicBlock: 0
  Prevs: 
  Succs: 2
  Statements: 

  BasicBlock: 1
  Prevs: 7
  Succs: 
  Statements: 

  BasicBlock: 2
  Prevs: 0
  Succs: 3, 6
  Statements: 
  : String s="A";

  : x > 10

  BasicBlock: 3
  Prevs: 2
  Succs: 4, 5
  Statements: 
  : s+="B";

  : x > 20

  BasicBlock: 4
  Prevs: 3
  Succs: 7
  Statements: 
  : s+="C";


  BasicBlock: 5
  Prevs: 3
  Succs: 7
  Statements: 
  : s+="D";


  BasicBlock: 6
  Prevs: 2
  Succs: 7
  Statements: 
  : s+="E";


  BasicBlock: 7
  Prevs: 4, 5, 6
  Succs: 1
  Statements: 
  : s+="F";


