CFG of method: public void testWhileBreak1(int) 
Entry: 0
Exit: 1
Basicblocks:
  BasicBlock: 0
  Prevs: 
  Succs: 2
  Statements: 

  BasicBlock: 1
  Prevs: 2, 4, 5
  Succs: 
  Statements: 

  BasicBlock: 2
  Prevs: 0
  Succs: 1, 3
  Statements: 
  : x < 10

  BasicBlock: 3
  Prevs: 2
  Succs: 4, 5
  Statements: 
  : x++;

  : x == 4

  BasicBlock: 4
  Prevs: 3
  Succs: 1
  Statements: 
  : break;


  BasicBlock: 5
  Prevs: 3
  Succs: 1
  Statements: 
  : x+=2;


