CFG of method: public void testTry4(int) 
Entry: 0
Exit: 1
Basicblocks:
  BasicBlock: 0
  Prevs: 
  Succs: 2
  Statements: 

  BasicBlock: 1
  Prevs: 3, 4
  Succs: 
  Statements: 

  BasicBlock: 2
  Prevs: 0
  Succs: 3, 4
  Statements: 
  : x=x + 1;


  BasicBlock: 3
  Prevs: 2
  Succs: 1
  Statements: 
  : x=x + 2;


  BasicBlock: 4
  Prevs: 2
  Succs: 1
  Statements: 
  : System.err.println("Error");


