CFG of method: public void testSwitch6(int) 
Entry: 0
Exit: 1
Basicblocks:
  BasicBlock: 0
  Prevs: 
  Succs: 2
  Statements: 

  BasicBlock: 1
  Prevs: 5
  Succs: 
  Statements: 

  BasicBlock: 2
  Prevs: 0
  Succs: 3, 4
  Statements: 
  : x

  BasicBlock: 3
  Prevs: 2
  Succs: 4
  Statements: 
  : case 1:

  : System.out.println("1");

  : System.out.println("1");


  BasicBlock: 4
  Prevs: 2, 3
  Succs: 5
  Statements: 
  : case 2:

  : System.out.println("2");

  : System.out.println("2");


  BasicBlock: 5
  Prevs: 4
  Succs: 1
  Statements: 
  : x++;


